<?xml version="1.0" encoding="UTF-8" standalone="no"?>
<!--
 - Copyright 2017 Erin van der Veen.
 -
 - This file is licensed under a Creative Commons Attribution 4.0 International
 - License; see http://creativecommons.org/licenses/by/4.0/ for details.
-->
<svg
   xmlns:dc="http://purl.org/dc/elements/1.1/"
   xmlns:cc="http://creativecommons.org/ns#"
   xmlns:rdf="http://www.w3.org/1999/02/22-rdf-syntax-ns#"
   xmlns:svg="http://www.w3.org/2000/svg"
   xmlns="http://www.w3.org/2000/svg"
   xmlns:sodipodi="http://sodipodi.sourceforge.net/DTD/sodipodi-0.dtd"
   xmlns:inkscape="http://www.inkscape.org/namespaces/inkscape"
   width="433.16434"
   height="200"
   viewBox="0 0 114.60806 52.916668"
   version="1.1"
   id="clooglelogo">
  <title
     id="title4497">Cloogle logo</title>
  <defs
     id="defs4261" />
  <metadata
     id="metadata">
    <rdf:RDF>
      <cc:Work
         rdf:about="">
        <dc:format>image/svg+xml</dc:format>
        <dc:type
           rdf:resource="http://purl.org/dc/dcmitype/StillImage" />
        <dc:title>Cloogle logo</dc:title>
        <dc:date>2017-03-21</dc:date>
        <dc:creator>
          <cc:Agent>
            <dc:title>Erin van der Veen</dc:title>
          </cc:Agent>
        </dc:creator>
        <cc:license
           rdf:resource="http://creativecommons.org/licenses/by/4.0/" />
      </cc:Work>
      <cc:License
         rdf:about="http://creativecommons.org/licenses/by/4.0/">
        <cc:permits
           rdf:resource="http://creativecommons.org/ns#Reproduction" />
        <cc:permits
           rdf:resource="http://creativecommons.org/ns#Distribution" />
        <cc:requires
           rdf:resource="http://creativecommons.org/ns#Notice" />
        <cc:requires
           rdf:resource="http://creativecommons.org/ns#Attribution" />
        <cc:permits
           rdf:resource="http://creativecommons.org/ns#DerivativeWorks" />
      </cc:License>
    </rdf:RDF>
  </metadata>
  <g
     inkscape:label="Logo Layer"
     inkscape:groupmode="layer"
     id="layerlogo"
     transform="translate(-0.2645833,-244.08332)">
    <path
       style="fill:#87aade;stroke-width:1"
       d="M 100,0 A 100,100 0 0 0 1,100 100,100 0 0 0 101,200 V 168.36133 A 68.356594,68.356594 0 0 1 32.904297,100 68.356594,68.356594 0 0 1 100,31.648438 Z"
       transform="matrix(0.26458333,0,0,0.26458333,0,244.08332)"
       id="largec"
       inkscape:connector-curvature="0" />
    <path
       style="fill:#d7e3f4;stroke-width:1"
       d="M 100,38.714844 A 60.775314,60.775314 0 0 0 39.224605,99.490234 60.775314,60.775314 0 0 0 100,160.26562 v -29.1875 A 31.589168,31.589168 0 0 1 69.669922,100 31.589168,31.589168 0 0 1 100,67.900391 Z"
       transform="matrix(0.26458333,0,0,0.26458333,0,244.08332)"
       id="smallc"
       inkscape:connector-curvature="0" />
    <path
       style="fill:none;stroke:none;stroke-width:0"
       d="M 26.791647,286.48693 H 105.7051"
       id="textpath"
       inkscape:connector-curvature="0" />
    <text
       xml:space="preserve"
       style="font-style:normal;font-weight:normal;font-size:10.58333302px;line-height:1.25;font-family:sans-serif;letter-spacing:0px;word-spacing:0px;fill:#000000;fill-opacity:1;stroke:none;stroke-width:0.26458332"
       x="28.279488"
       y="286.37601"
       id="text5130"><tspan
         sodipodi:role="line"
         id="tspan5128"
         x="28.279488"
         y="286.37601"
         style="font-style:normal;font-variant:normal;font-weight:bold;font-stretch:normal;font-size:25.39999962px;font-family:'DejaVu Sans';-inkscape-font-specification:'DejaVu Sans, Bold';font-variant-ligatures:normal;font-variant-caps:normal;font-variant-numeric:normal;font-feature-settings:normal;text-align:start;writing-mode:lr-tb;text-anchor:start;stroke-width:0.26458332"><tspan
           style="fill:#373e48"
           id="tspan5132">l</tspan><tspan
           style="fill:#535d6c"
           id="tspan5134">o</tspan><tspan
           style="fill:#6f7c91"
           id="tspan5136">o</tspan><tspan
           style="fill:#939dac"
           id="tspan5138">g</tspan><tspan
           style="fill:#b7bec8"
           id="tspan5142">l</tspan><tspan
           id="tspan5146"
           style="fill:#dbdee3">e</tspan></tspan></text>
  </g>
</svg>
